%YAML 1.1
%TAG !u! tag:unity3d.com,2011:
--- !u!114 &11400000
MonoBehaviour:
  m_ObjectHideFlags: 0
  m_CorrespondingSourceObject: {fileID: 0}
  m_PrefabInstance: {fileID: 0}
  m_PrefabAsset: {fileID: 0}
  m_GameObject: {fileID: 0}
  m_Enabled: 1
  m_EditorHideFlags: 0
  m_Script: {fileID: 11500000, guid: 7e5b698b89364a1488f18984b1e86fa7, type: 3}
  m_Name: UISettings
  m_EditorClassIdentifier: 
  NormalStateSprite: {fileID: 21300000, guid: f3999522e6c440b43ae450c50f1c2983, type: 3}
  OutOfMovesSprite: {fileID: 21300000, guid: 92e133bc3fb54e64dbf434e57fdfde35, type: 3}
  FloatingText: {fileID: 114471049776983146, guid: 36ab674dadcc4bd469897b535a6ac278,
    type: 3}
