%YAML 1.1
%TAG !u! tag:unity3d.com,2011:
--- !u!5 &1
TimeManager:
  m_ObjectHideFlags: 0
  Fixed Timestep: 0.0167
  Maximum Allowed Timestep: 0.1
  m_TimeScale: 3.65
  Maximum Particle Timestep: 0.03
