%YAML 1.1
%TAG !u! tag:unity3d.com,2011:
--- !u!1 &509106934008934530
GameObject:
  m_ObjectHideFlags: 0
  m_CorrespondingSourceObject: {fileID: 0}
  m_PrefabInstance: {fileID: 0}
  m_PrefabAsset: {fileID: 0}
  serializedVersion: 6
  m_Component:
  - component: {fileID: 6962553765759396150}
  - component: {fileID: 4830075156988193089}
  - component: {fileID: 3285001206255471532}
  - component: {fileID: 3054810637080592799}
  m_Layer: 0
  m_Name: Sphere
  m_TagString: Untagged
  m_Icon: {fileID: 0}
  m_NavMeshLayer: 0
  m_StaticEditorFlags: 0
  m_IsActive: 1
--- !u!4 &6962553765759396150
Transform:
  m_ObjectHideFlags: 0
  m_CorrespondingSourceObject: {fileID: 0}
  m_PrefabInstance: {fileID: 0}
  m_PrefabAsset: {fileID: 0}
  m_GameObject: {fileID: 509106934008934530}
  m_LocalRotation: {x: -0, y: -0, z: -0, w: 1}
  m_LocalPosition: {x: 0, y: 0.5, z: 0}
  m_LocalScale: {x: 1, y: 1.2, z: 1}
  m_Children: []
  m_Father: {fileID: 580244601574525843}
  m_RootOrder: 0
  m_LocalEulerAnglesHint: {x: 0, y: 0, z: 0}
--- !u!33 &4830075156988193089
MeshFilter:
  m_ObjectHideFlags: 0
  m_CorrespondingSourceObject: {fileID: 0}
  m_PrefabInstance: {fileID: 0}
  m_PrefabAsset: {fileID: 0}
  m_GameObject: {fileID: 509106934008934530}
  m_Mesh: {fileID: 10207, guid: 0000000000000000e000000000000000, type: 0}
--- !u!23 &3285001206255471532
MeshRenderer:
  m_ObjectHideFlags: 0
  m_CorrespondingSourceObject: {fileID: 0}
  m_PrefabInstance: {fileID: 0}
  m_PrefabAsset: {fileID: 0}
  m_GameObject: {fileID: 509106934008934530}
  m_Enabled: 1
  m_CastShadows: 1
  m_ReceiveShadows: 1
  m_DynamicOccludee: 1
  m_MotionVectors: 1
  m_LightProbeUsage: 1
  m_ReflectionProbeUsage: 1
  m_RenderingLayerMask: 1
  m_RendererPriority: 0
  m_Materials:
  - {fileID: 10303, guid: 0000000000000000f000000000000000, type: 0}
  m_StaticBatchInfo:
    firstSubMesh: 0
    subMeshCount: 0
  m_StaticBatchRoot: {fileID: 0}
  m_ProbeAnchor: {fileID: 0}
  m_LightProbeVolumeOverride: {fileID: 0}
  m_ScaleInLightmap: 1
  m_PreserveUVs: 0
  m_IgnoreNormalsForChartDetection: 0
  m_ImportantGI: 0
  m_StitchLightmapSeams: 0
  m_SelectedEditorRenderState: 3
  m_MinimumChartSize: 4
  m_AutoUVMaxDistance: 0.5
  m_AutoUVMaxAngle: 89
  m_LightmapParameters: {fileID: 0}
  m_SortingLayerID: 0
  m_SortingLayer: 0
  m_SortingOrder: 0
--- !u!114 &3054810637080592799
MonoBehaviour:
  m_ObjectHideFlags: 0
  m_CorrespondingSourceObject: {fileID: 0}
  m_PrefabInstance: {fileID: 0}
  m_PrefabAsset: {fileID: 0}
  m_GameObject: {fileID: 509106934008934530}
  m_Enabled: 1
  m_EditorHideFlags: 0
  m_Script: {fileID: 11500000, guid: c6da41da12fd31143befb9b0758f373e, type: 3}
  m_Name: 
  m_EditorClassIdentifier: 
  EndAnimationDuration: 0
  Animator:
    Animator: {fileID: 0}
  serializedData:
    Owner: 0
    Name: 
    PrefabPath: 
    AttackDamage:
      baseValue:
        value: 0
    AttackSpeed:
      baseValue:
        value: 0
    AttackRange:
      baseValue:
        value: 0
    AggroRange:
      baseValue:
        value: 0
    SplashRange:
      baseValue:
        value: 0
    height:
      value: 0
    radius:
      value: 0
    colliderRadius:
      value: 0
    influenceRadius:
      value: 0
    directionChangeFatigue:
      value: 0
    mass:
      value: 0
    steerAwayFrom:
      value: 0
    actionType: 0
    position:
      x:
        value: 0
      y:
        value: 0
    lookDirection:
      x:
        value: 0
      y:
        value: 0
    velocity:
      x:
        value: 0
      y:
        value: 0
    lastPosition:
      x:
        value: 0
      y:
        value: 0
    lastPositionDiff:
      value: 0
    MovementSpeed:
      baseValue:
        value: 0
    IsInvulnerable: 0
    MaxHealth:
      baseValue:
        value: 0
  UIWidget:
    HealthBarEnabled: 1
  ProjectileFirePoint: {fileID: 0}
--- !u!1 &580244601575020467
GameObject:
  m_ObjectHideFlags: 0
  m_CorrespondingSourceObject: {fileID: 0}
  m_PrefabInstance: {fileID: 0}
  m_PrefabAsset: {fileID: 0}
  serializedVersion: 6
  m_Component:
  - component: {fileID: 580244601574525843}
  - component: {fileID: 2230724345202869017}
  m_Layer: 0
  m_Name: Archer
  m_TagString: Untagged
  m_Icon: {fileID: 0}
  m_NavMeshLayer: 0
  m_StaticEditorFlags: 0
  m_IsActive: 1
--- !u!4 &580244601574525843
Transform:
  m_ObjectHideFlags: 0
  m_CorrespondingSourceObject: {fileID: 0}
  m_PrefabInstance: {fileID: 0}
  m_PrefabAsset: {fileID: 0}
  m_GameObject: {fileID: 580244601575020467}
  m_LocalRotation: {x: 0, y: 0, z: 0, w: 1}
  m_LocalPosition: {x: 0, y: 0, z: 0}
  m_LocalScale: {x: 0.4, y: 0.5, z: 0.4}
  m_Children:
  - {fileID: 6962553765759396150}
  m_Father: {fileID: 0}
  m_RootOrder: 0
  m_LocalEulerAnglesHint: {x: 0, y: 0, z: 0}
--- !u!114 &2230724345202869017
MonoBehaviour:
  m_ObjectHideFlags: 0
  m_CorrespondingSourceObject: {fileID: 0}
  m_PrefabInstance: {fileID: 0}
  m_PrefabAsset: {fileID: 0}
  m_GameObject: {fileID: 580244601575020467}
  m_Enabled: 1
  m_EditorHideFlags: 0
  m_Script: {fileID: 11500000, guid: c6da41da12fd31143befb9b0758f373e, type: 3}
  m_Name: 
  m_EditorClassIdentifier: 
  EndAnimationDuration: 0.2
  Animator:
    Animator: {fileID: 0}
  serializedData:
    Owner: 0
    Name: 
    PrefabPath: 
    AttackDamage:
      baseValue:
        value: 0
    AttackSpeed:
      baseValue:
        value: 0
    AttackRange:
      baseValue:
        value: 0
    AggroRange:
      baseValue:
        value: 0
    SplashRange:
      baseValue:
        value: 0
    height:
      value: 0
    radius:
      value: 0
    colliderRadius:
      value: 0
    influenceRadius:
      value: 0
    directionChangeFatigue:
      value: 0
    mass:
      value: 0
    steerAwayFrom:
      value: 0
    actionType: 0
    position:
      x:
        value: 0
      y:
        value: 0
    lookDirection:
      x:
        value: 0
      y:
        value: 0
    velocity:
      x:
        value: 0
      y:
        value: 0
    lastPosition:
      x:
        value: 0
      y:
        value: 0
    lastPositionDiff:
      value: 0
    MovementSpeed:
      baseValue:
        value: 0
    IsInvulnerable: 0
    MaxHealth:
      baseValue:
        value: 0
  UIWidget:
    HealthBarEnabled: 1
  ProjectileFirePoint: {fileID: 0}
