{
    "name": "NFloatEditor",
    "references": [
        "NFloat",
        "UnityExtend"
    ],
    "optionalUnityReferences": [],
    "includePlatforms": [
        "Editor"
    ],
    "excludePlatforms": [],
    "allowUnsafeCode": false,
    "overrideReferences": false,
    "precompiledReferences": [],
    "autoReferenced": true,
    "defineConstraints": []
}